c-c++/systemc/modules/MMA/mma_tb.vcd
$date
     Jul 21, 2025       20:52:55
$end

$version
 SystemC 2.3.3-Accellera --- May 10 2025 20:18:16
$end

$timescale
     1 ns
$end

$scope module SystemC $end
$var wire    1  aaaaa  clk       $end
$var wire    1  aaaab  rst       $end
$var wire   16  aaaac  input [15:0]  $end
$var wire   16  aaaad  output [15:0]  $end
$var wire    1  aaaae  startP       $end
$var wire    2  aaaaf  stateP [1:0]  $end
$var wire    1  aaaag  startI       $end
$var wire    1  aaaah  startW       $end
$var wire    1  aaaai  ready       $end
$upscope $end
$enddefinitions  $end

$comment
All initial values are dumped below at time 0 sec = 0 timescale units.
$end

$dumpvars
0aaaaa
0aaaab
b10 aaaac
bXXXXXXXXXXXXXXXX aaaad
1aaaae
b0 aaaaf
xaaaag
xaaaah
0aaaai
$end

#2
1aaaaa
b11 aaaac
b0 aaaad
b1 aaaaf

#4
0aaaaa

#6
1aaaaa
b10 aaaaf

#8
0aaaaa

#10
1aaaaa
b10 aaaac
b11 aaaaf

#12
0aaaaa

#14
1aaaaa
b1 aaaac
0aaaae
1aaaag
1aaaai

#16
0aaaaa

#18
1aaaaa
0aaaai

#20
0aaaaa

#22
1aaaaa
0aaaag
1aaaai

#24
0aaaaa

#26
1aaaaa
b10 aaaac
1aaaag
0aaaai

#28
0aaaaa

#30
1aaaaa

#32
0aaaaa

#34
1aaaaa
0aaaag
1aaaai

#36
0aaaaa

#38
1aaaaa
b11 aaaac
1aaaag
0aaaai

#40
0aaaaa

#42
1aaaaa

#44
0aaaaa

#46
1aaaaa
0aaaag
1aaaai

#48
0aaaaa

#50
1aaaaa
b100 aaaac
1aaaag
0aaaai

#52
0aaaaa

#54
1aaaaa

#56
0aaaaa

#58
1aaaaa
0aaaag
1aaaai

#60
0aaaaa

#62
1aaaaa
b101 aaaac
1aaaag
0aaaai

#64
0aaaaa

#66
1aaaaa

#68
0aaaaa

#70
1aaaaa
0aaaag
1aaaai

#72
0aaaaa

#74
1aaaaa
b110 aaaac
1aaaag
0aaaai

#76
0aaaaa

#78
1aaaaa

#80
0aaaaa

#82
1aaaaa
0aaaag
1aaaai

#84
0aaaaa

#86
1aaaaa
b111 aaaac
1aaaag
0aaaai

#88
0aaaaa

#90
1aaaaa

#92
0aaaaa

#94
1aaaaa
0aaaag
1aaaai

#96
0aaaaa

#98
1aaaaa
b1000 aaaac
1aaaag
0aaaai

#100
0aaaaa

#102
1aaaaa

#104
0aaaaa

#106
1aaaaa
0aaaag
1aaaai

#108
0aaaaa

#110
1aaaaa
b1001 aaaac
1aaaag
0aaaai

#112
0aaaaa

#114
1aaaaa

#116
0aaaaa

#118
1aaaaa
0aaaag
1aaaai

#120
0aaaaa

#122
1aaaaa
b1010 aaaac
1aaaag
0aaaai

#124
0aaaaa

#126
1aaaaa

#128
0aaaaa

#130
1aaaaa
0aaaag
1aaaai

#132
0aaaaa

#134
1aaaaa
b1011 aaaac
1aaaag
0aaaai

#136
0aaaaa

#138
1aaaaa

#140
0aaaaa

#142
1aaaaa
0aaaag
1aaaai

#144
0aaaaa

#146
1aaaaa
b1100 aaaac
1aaaag
0aaaai

#148
0aaaaa

#150
1aaaaa

#152
0aaaaa

#154
1aaaaa
0aaaag
1aaaai

#156
0aaaaa

#158
1aaaaa
0aaaai

